case-study1.R
…
#question 10
t1 <- final_merge %>%
  group_by(customer_Id,total_amt) %>% 
  summarise() 

## `summarise()` has grouped output by 'customer_Id'. You can override using the `.groups` argument.

t2 <- t1 %>%
  group_by(customer_Id) %>%
  summarise(nonneg = length(which(total_amt>0)))
t2

## # A tibble: 5,506 x 2
##    customer_Id nonneg
##          <int>  <int>
##  1      266783      4
##  2      266784      3
##  3      266785      7
##  4      266788      4
##  5      266794     11
##  6      266799      3
##  7      266803      1
##  8      266804      1
##  9      266805      1
## 10      266806      6
## # ... with 5,496 more rows
…
#q11b
tran1 <- final_merge %>%
  group_by(tran_date,age_grp) %>%
  summarise(totalrevenue = sum(total_amt,na.rm = T))

## `summarise()` has grouped output by 'tran_date'. You can override using the `.groups` argument.

tran1[tran1$tran_date >= '2014-01-01' & tran1$tran_date <= '2014-03-01' & tran1$age_grp == "O",]

## # A tibble: 33 x 3
## # Groups:   tran_date [33]
##    tran_date  age_grp totalrevenue
##    <date>     <chr>          <dbl>
##  1 2014-01-13 O             55042.
##  2 2014-01-14 O             86200.
##  3 2014-01-15 O             97930.
##  4 2014-01-16 O             70087.
##  5 2014-01-17 O            152713.
##  6 2014-01-18 O            115147.
##  7 2014-01-19 O             46619.
##  8 2014-01-20 O             68657.
##  9 2014-01-21 O             57393.
## 10 2014-01-22 O            110321.
## # ... with 23 more rows
